Covid-19 Cases Analysis in Toronto - A Hugo website
…
How many patients are currently hospitalized
how many patients are ever hospitalized
How many patients are currently in ICU
How many patients are ever in ICU
How many patients are currently intubated
How many patients are ever intubated

percentage of fatality for patient ever in ICU, intubated and hospitalized.

correlation between age and conditions

## # A tibble: 97 x 2
##    FSA   count
##    <chr> <int>
##  1 M9V    1001
##  2 M3N     764
##  3 NaN     618
##  4 M6M     576
##  5 M9W     508
##  6 M9R     483
##  7 M1E     477
##  8 M3J     474
##  9 M9N     405
## 10 M1B     376
## # … with 87 more rows

## # A tibble: 141 x 2
##    `Neighbourhood Name`              count
##    <chr>                             <int>
##  1 NaN                                 678
##  2 Mount Olive-Silverstone-Jamestown   564
##  3 West Humber-Clairville              558
##  4 Glenfield-Jane Heights              555
##  5 Downsview-Roding-CFB                522
##  6 York University Heights             488
##  7 Islington-City Centre West          415
##  8 Weston                              368
##  9 Kingsview Village-The Westway       365
## 10 Black Creek                         347
## # … with 131 more rows
…
## # A tibble: 5 x 2
##   `Client Gender` count
##   <chr>           <int>
## 1 FEMALE           9427
## 2 MALE             8184
## 3 UNKNOWN           250
## 4 OTHER               6
## 5 TRANSGENDER         5

## # A tibble: 37 x 3
## # Groups:   Client Gender [5]
##    `Client Gender` `Age Group`    count
##    <chr>           <chr>          <int>
##  1 MALE            20 to 29 Years  1540
##  2 FEMALE          20 to 29 Years  1486
##  3 FEMALE          50 to 59 Years  1483
##  4 MALE            30 to 39 Years  1369
##  5 FEMALE          30 to 39 Years  1328
##  6 FEMALE          40 to 49 Years  1290
##  7 MALE            50 to 59 Years  1221
##  8 MALE            40 to 49 Years  1095
##  9 FEMALE          80 to 89 Years   967
## 10 MALE            60 to 69 Years   912
## # … with 27 more rows

## # A tibble: 3 x 2
##   Outcome  count
##   <chr>    <int>
## 1 RESOLVED 15440
## 2 ACTIVE    1254
## 3 FATAL     1178

## # A tibble: 135 x 2
##    `Neighbourhood Name`              count
##    <chr>                             <int>
##  1 Waterfront Communities-The Island    88
##  2 NaN                                  50
##  3 Niagara                              41
##  4 York University Heights              39
##  5 Church-Yonge Corridor                34
##  6 Islington-City Centre West           34
##  7 West Humber-Clairville               31
##  8 Black Creek                          29
##  9 Kingsview Village-The Westway        26
## 10 Mount Olive-Silverstone-Jamestown    25
## # … with 125 more rows
…
